{
  "swagger": "2.0",
  "info": {
    "title": "v1/health.proto",
    "version": "version not set"
  },
  "tags": [
    {
      "name": "Health"
    }
  ],
  "consumes": [
    "application/json"
  ],
  "produces": [
    "application/json"
  ],
  "paths": {
    "/health": {
      "get": {
        "summary": "If the requested service is unknown, the call will fail with status\nNOT_FOUND.",
        "operationId": "Health_Check",
        "responses": {
          "200": {
            "description": "A successful response.",
            "schema": {
              "$ref": "#/definitions/v1HealthCheckResponse"
            }
          },
          "default": {
            "description": "An unexpected error response.",
            "schema": {
              "$ref": "#/definitions/rpcStatus"
            }
          }
        },
        "parameters": [
          {
            "name": "service",
            "in": "query",
            "required": false,
            "type": "string"
          }
        ],
        "tags": [
          "Health"
        ]
      }
    }
  },
  "definitions": {
    "HealthCheckResponseServingStatus": {
      "type": "string",
      "enum": [
        "UNKNOWN",
        "SERVING",
        "NOT_SERVING",
        "SERVICE_UNKNOWN"
      ],
      "default": "UNKNOWN"
    },
    "protobufAny": {
      "type": "object",
      "properties": {
        "@type": {
          "type": "string"
        }
      },
      "additionalProperties": {}
    },
    "rpcStatus": {
      "type": "object",
      "properties": {
        "code": {
          "type": "integer",
          "format": "int32"
        },
        "message": {
          "type": "string"
        },
        "details": {
          "type": "array",
          "items": {
            "$ref": "#/definitions/protobufAny"
          }
        }
      }
    },
    "v1HealthCheckResponse": {
      "type": "object",
      "properties": {
        "status": {
          "$ref": "#/definitions/HealthCheckResponseServingStatus"
        }
      }
    }
  }
}
